[gd_scene load_steps=2 format=2]

[ext_resource path="res://entities/moves/switch/switch.gd" type="Script" id=1]

[node name="Switch" type="Node2D"]
script = ExtResource( 1 )
launch_position = 2
hit_position = 2
move_type = 4
